<!-- <svg id="Layer_1" data-name="Layer 1" xmlns="http://www.w3.org/2000/svg" viewBox="0 0 596 842">
    <g onclick = 'chooseColor(this)'>
        <polygon  fill="#fff200" points="188.38 364 80.75 364 44.88 292.25 116.63 292.25 80.75 220.5 152.5 220.5 224.25 328.13 260.13 328.13 188.38 184.63 260.13 184.63 260.13 112.88 331.88 112.88 331.88 184.63 403.63 184.63 331.88 328.13 367.75 328.13 439.5 220.5 511.25 220.5 475.38 292.25 547.13 292.25 511.25 364 403.63 364 403.63 399.88 547.13 399.88 583 435.75 547.13 471.63 403.63 471.63 403.63 507.5 511.25 507.5 547.13 579.25 475.38 579.25 511.25 651 439.5 651 367.75 543.38 331.88 543.38 403.63 686.88 331.88 686.88 331.88 758.63 260.13 758.63 260.13 686.88 188.38 686.88 260.13 543.38 224.25 543.38 152.5 651 80.75 651 116.63 579.25 44.88 579.25 80.75 507.5 188.38 507.5 188.38 471.63 44.88 471.63 9 435.75 44.88 399.88 188.38 399.88 188.38 364"/>

        <rect fill="#fff" x="224.25" y="399.88" width="143.5" height="71.75"/>
    </g>
</svg> -->

<svg id="Layer_1" data-name="Layer 1" xmlns="http://www.w3.org/2000/svg" viewBox="0 0 596 842">
    <g onclick = 'chooseColor(this)'>
        <polygon  points="188.38 364 80.75 364 44.88 292.25 116.63 292.25 80.75 220.5 152.5 220.5 224.25 328.13 260.13 328.13 188.38 184.63 260.13 184.63 260.13 112.88 331.88 112.88 331.88 184.63 403.63 184.63 331.88 328.13 367.75 328.13 439.5 220.5 511.25 220.5 475.38 292.25 547.13 292.25 511.25 364 403.63 364 403.63 399.88 547.13 399.88 583 435.75 547.13 471.63 403.63 471.63 403.63 507.5 511.25 507.5 547.13 579.25 475.38 579.25 511.25 651 439.5 651 367.75 543.38 331.88 543.38 403.63 686.88 331.88 686.88 331.88 758.63 260.13 758.63 260.13 686.88 188.38 686.88 260.13 543.38 224.25 543.38 152.5 651 80.75 651 116.63 579.25 44.88 579.25 80.75 507.5 188.38 507.5 188.38 471.63 44.88 471.63 9 435.75 44.88 399.88 188.38 399.88 188.38 364"/>

        <rect x="224.25" y="399.88" width="143.5" height="71.75"/>
    </g>
</svg>