<?xml version="1.0" encoding="utf-8"?>
<svg xmlns="http://www.w3.org/2000/svg" xmlns:xlink="http://www.w3.org/1999/xlink" viewBox="0 0 200 300">
	<g>
		<path id="svgbar" fill="#971B1E" d="M225.329,267.787c-23.084,9.948-43.954,1.744-53.219-12.196c19.598,7.068,69.996,9.991,31.126-12.264
			c19.605-18.674,5.325-34.408-35.108,3.743c-1.872-6.479-1.445-13.546,1.931-20.306c13.102-26.204-31.339-77.484-140.734,31.911
			C138.719,149.28,87.439,104.84,61.236,117.941c-6.76,3.376-13.828,3.804-20.306,1.932c38.151-40.434,22.417-54.715,3.743-35.109
			C22.417,45.895,25.34,96.293,32.409,115.89c-13.939-9.264-22.145-30.135-12.196-53.219C36.161,25.64,20.212,0,0,0v288h288
			C288,267.787,262.361,251.84,225.329,267.787z M78.32,135.607c16.418,11.06,3.684,39.425-15.726,64.184
			c6.418-21.76,8.812-49.945-3.068-49.945c-15.272,0-29.442,61.782-21.896,76.525c-4.932,4.324-9.726,8.008-14.119,10.769
			C6.53,177.194,51.536,117.549,78.32,135.607z M39.579,131.616C24.195,143,17.931,150.991,9.384,188.596
			C4.829,149.846,17.931,118.514,39.579,131.616z M24.195,120.787c0,0-12.529,1.71-16.521,17.094v-47.86
			C7.675,102.558,17.931,114.522,24.195,120.787z M8.248,10.256c8.247,3.991,11.957,37.032,1.137,52.415
			C5.393,51.852,5.393,19.938,8.248,10.256z M7.393,280.607l-0.855-57.262c0,0,20.136,37.98,14.307,43.809
			c5.829-5.828,43.809,14.308,43.809,14.308L7.393,280.607z M50.86,264.488c2.76-4.393,6.444-9.188,10.769-14.118
			c14.743,7.546,76.525-6.624,76.525-21.896c0-11.88-28.187-9.486-49.946-3.068c24.76-19.409,53.125-32.144,64.185-15.726
			C170.452,236.464,110.806,281.47,50.86,264.488z M99.405,278.616c37.604-8.547,45.596-14.812,56.979-30.195
			C169.486,270.069,138.154,283.171,99.405,278.616z M150.12,280.325c15.383-3.991,17.093-16.521,17.093-16.521
			c6.265,6.265,18.23,16.521,30.768,16.521H150.12z M225.329,278.616c15.384-10.82,48.425-7.111,52.416,1.137
			C268.061,282.606,236.148,282.606,225.329,278.616z"/>
	</g>
</svg>
